StackOverflow Survey
…
Load the libraries

library(tidyverse)
library(ggrepel)

Import the dataset

survey <- read_csv("F:\\Tutorials\\R tutorials\\R MARKDOWN\\surveyResults.csv")
survey

## # A tibble: 89,184 x 84
##    ResponseId Q120    MainBranch    Age   Employment RemoteWork CodingActivities
##         <dbl> <chr>   <chr>         <chr> <chr>      <chr>      <chr>           
##  1          1 I agree None of these 18-2~ <NA>       <NA>       <NA>            
##  2          2 I agree I am a devel~ 25-3~ Employed,~ Remote     Hobby;Contribut~
##  3          3 I agree I am a devel~ 45-5~ Employed,~ Hybrid (s~ Hobby;Professio~
##  4          4 I agree I am a devel~ 25-3~ Employed,~ Hybrid (s~ Hobby           
##  5          5 I agree I am a devel~ 25-3~ Employed,~ Remote     Hobby;Contribut~
##  6          6 I agree I am a devel~ 35-4~ Employed,~ Remote     Hobby;Professio~
##  7          7 I agree I am a devel~ 35-4~ Employed,~ Remote     Hobby;Contribut~
##  8          8 I agree I am a devel~ 25-3~ Employed,~ Remote     Hobby           
##  9          9 I agree I am not pri~ 45-5~ Employed,~ Hybrid (s~ Hobby;Contribut~
## 10         10 I agree I am a devel~ 25-3~ Not emplo~ <NA>       <NA>            
## # i 89,174 more rows
## # i 77 more variables: EdLevel <chr>, LearnCode <chr>, LearnCodeOnline <chr>,
## #   LearnCodeCoursesCert <chr>, YearsCode <chr>, YearsCodePro <chr>,
## #   DevType <chr>, OrgSize <chr>, PurchaseInfluence <chr>, TechList <chr>,
## #   BuyNewTool <chr>, Country <chr>, Currency <chr>, CompTotal <dbl>,
## #   LanguageHaveWorkedWith <chr>, LanguageWantToWorkWith <chr>,
## #   DatabaseHaveWorkedWith <chr>, DatabaseWantToWorkWith <chr>, ...
…
